<?xml version="1.0" encoding="iso-8859-1"?>
<!DOCTYPE svg PUBLIC "-//W3C//DTD SVG 1.1//EN" "http://www.w3.org/Graphics/SVG/1.1/DTD/svg11.dtd">
<svg 
 version="1.1" xmlns="http://www.w3.org/2000/svg" xmlns:xlink="http://www.w3.org/1999/xlink" x="0px" y="0px" width="512px"
	 height="512px" viewBox="0 0 512 512" style="enable-background:new 0 0 512 512;" xml:space="preserve"
><g id="afcae5a789ccd549f9c6e2a2f80cf216"><g></g><g fill="#c2d9bf"><path style="display: inline;" d="M304.533,101.555l191.412,154.775L304.533,411.105V311.023H140.467V201.637h164.066V101.555z
		 M60.489,467.391V45.261h266.607l44.436-44.435H16.055v511h355.478l-44.436-44.436H60.489z"></path></g></g></svg>